0 1
0 2
0 3
0 4
1 2
1 3
1 4
1 5
1 6
1 4
1 5
1 6
2 5
2 6
2 5
2 6
3 6
3 7
3 8
3 7
3 8
3 9
3 10
3 11
4 9
4 9
4 10
4 11
5 10
5 9
5 10
5 11
5 12
5 12
5 11
5 12
6 12
6 13
6 12
6 11
7 11
7 12
7 13
7 14
7 13
7 14
7 15
7 16
7 17
7 15
7 15
7 15
8 15
8 16
8 14
8 15
8 16
8 15
8 16
8 16
9 15
9 16
9 17
9 18
11 16
11 17
11 18
11 18
11 19
11 19
11 20
11 21
12 21
12 21
12 20
12 21
12 22
12 22
12 23
12 22
12 23
12 23
12 24
12 25
14 23
14 24
14 24
14 25
15 25
15 24
15 24
15 25
15 26
15 27
15 25
15 26
16 26
16 27
16 28
16 27
17 26
17 26
17 27
17 27
17 27
17 27
17 28
17 29
18 29
18 27
18 27
18 28
19 27
19 28
19 26
19 26
19 25
19 26
19 26
19 26
19 27
19 26
19 26
19 27
20 27
20 28
20 29
20 30
20 31
20 30
20 31
20 32
20 33
20 34
20 33
20 33
21 33
21 34
21 35
21 35
21 36
21 37
21 36
21 37
23 36
23 36
23 37
23 37
24 37
24 37
24 38
24 39
24 39
24 40
24 38
24 38
25 38
25 39
25 39
25 38
25 39
25 40
25 41
25 41
25 41
25 42
25 43
25 44
26 44
26 42
26 43
26 44
27 44
27 44
27 43
27 44
27 45
27 45
27 46
27 46
28 45
28 45
28 45
28 46
30 45
30 46
30 46
30 47
30 48
30 46
30 47
30 48
31 48
31 48
31 47
31 48
32 48
32 49
32 50
32 49
32 50
32 49
32 48
32 48
34 47
34 48
34 49
34 49
34 50
34 50
34 51
34 51
34 52
34 53
34 51
34 52
34 53
34 53
34 53
34 53
36 52
36 52
36 53
36 54
36 53
36 52
36 53
36 54
37 54
37 52
37 53
37 53
38 53
38 53
38 51
38 52
38 53
38 53
38 54
38 54
39 53
39 54
39 55
39 55
39 54
39 54
39 53
39 54
39 55
39 55
39 56
39 57
39 58
39 59
39 57
39 58
40 58
40 59
40 59
40 59
40 59
40 60
40 61
40 62
42 60
42 61
42 61
42 62
43 62
43 61
43 62
43 62
43 62
43 62
43 62
43 63
44 63
44 64
44 65
44 65
45 65
45 66
45 67
45 68
45 68
45 68
45 68
45 69
46 68
46 67
46 67
46 67
47 67
47 68
47 66
47 66
47 67
47 67
47 66
47 66
47 67
47 68
47 67
47 68
49 67
49 67
49 68
49 69
49 70
49 68
49 69
49 69
50 69
50 69
50 69
50 70
51 69
51 69
51 69
51 68
51 69
51 70
51 70
51 71
53 70
53 71
53 71
53 71
53 72
53 72
53 73
53 74
53 74
53 75
53 73
53 74
54 74
54 74
54 73
54 73
54 74
54 75
54 76
54 77
54 77
54 77
54 78
54 78
55 78
55 77
55 76
55 77
56 77
56 78
56 76
56 76
56 76
56 77
56 78
56 78
56 79
56 78
56 79
56 79
58 79
58 79
58 80
58 81
58 81
58 80
58 80
58 81
59 81
59 81
59 81
59 82
61 82
61 83
61 84
61 83
61 84
61 85
61 86
61 87
61 87
61 87
61 88
61 88
62 88
62 87
62 87
62 88
62 89
62 89
62 87
62 88
63 88
63 89
63 90
63 89
64 88
64 89
64 88
64 87
64 86
64 85
64 85
64 85
65 85
65 84
65 84
65 85
65 86
65 87
65 85
65 85
65 86
65 87
65 88
65 88
66 88
66 89
66 90
66 90
68 90
68 91
68 91
68 92
68 92
68 90
68 91
68 92
69 92
69 93
69 92
69 92
69 93
69 93
69 94
69 94
69 95
69 94
69 95
69 95
71 94
71 95
71 95
71 96
72 96
72 96
72 96
72 95
72 96
72 97
72 95
72 96
73 96
73 96
73 96
73 95
74 95
74 96
74 97
74 97
74 96
74 96
74 97
74 97
74 98
74 96
74 96
74 97
74 98
74 99
74 98
74 98
74 98
74 99
74 100
74 100
76 99
76 98
76 99
76 100
78 99
78 100
78 101
78 101
78 102
78 102
78 103
78 103
80 103
80 103
80 103
80 104
80 105
80 106
80 107
80 107
80 108
80 109
80 110
80 111
82 110
82 111
82 111
82 112
83 112
83 110
83 110
83 111
83 112
83 112
83 110
83 111
83 112
83 112
83 112
83 112
84 112
84 112
84 113
84 114
84 114
84 115
84 115
84 116
84 117
84 115
84 116
84 117
86 117
86 117
86 115
86 116
86 117
86 117
86 118
86 118
87 117
87 118
87 118
87 118
89 117
89 117
89 118
89 118
89 118
89 118
89 118
89 119
89 120
89 120
89 120
89 121
90 120
90 121
90 120
90 120
90 120
90 120
90 121
90 122
92 122
92 123
92 124
92 125
93 125
93 125
93 126
93 126
93 127
93 127
93 126
93 127
94 127
94 126
94 126
94 125
94 126
94 126
94 126
94 126
94 125
94 125
94 126
94 127
94 128
94 126
94 126
94 126
95 126
95 127
95 125
95 125
95 126
95 126
95 127
95 127
96 127
96 128
96 129
96 130
96 128
96 127
96 128
96 129
96 129
96 128
96 127
96 127
97 127
97 128
97 128
97 129
98 128
98 129
98 130
98 129
98 130
98 131
98 131
98 131
99 131
99 131
99 132
99 132
101 131
101 131
101 132
101 133
101 134
101 133
101 131
101 131
101 131
101 131
101 132
101 131
102 131
102 132
102 133
102 134
102 133
102 133
102 134
102 135
102 136
102 135
102 136
102 137
103 137
103 137
103 135
103 135
103 135
103 136
103 137
103 137
104 136
104 137
104 137
104 138
104 138
104 138
104 138
104 139
104 140
104 138
104 137
104 138
105 138
105 138
105 137
105 137
106 137
106 136
106 136
106 136
106 137
106 138
106 139
106 140
108 139
108 140
108 140
108 141
110 141
110 141
110 142
110 142
110 143
110 144
110 142
110 142
112 142
112 142
112 142
112 142
113 141
113 141
113 141
113 142
113 141
113 141
113 140
113 141
114 141
114 139
114 140
114 140
114 141
114 141
114 141
114 142
114 143
114 144
114 145
114 145
114 146
114 147
114 146
114 146
116 145
116 146
116 147
116 147
116 148
116 148
116 148
116 148
117 148
117 149
117 149
117 150
117 151
117 151
117 152
117 151
117 151
117 151
117 152
117 153
119 152
119 152
119 153
119 153
119 154
119 154
119 155
119 156
119 157
119 157
119 155
119 156
120 156
120 157
120 158
120 158
121 158
121 159
121 159
121 160
121 159
121 160
121 159
121 160
122 160
122 160
122 160
122 160
123 160
123 161
123 160
123 160
123 160
123 160
123 160
123 160
123 161
123 161
123 161
123 162
125 161
125 162
125 163
125 163
125 164
